<?xml version="1.0" encoding="UTF-8" standalone="no"?>
<!-- Created with Inkscape (http://www.inkscape.org/) -->

<svg
   xmlns:dc="http://purl.org/dc/elements/1.1/"
   xmlns:cc="http://creativecommons.org/ns#"
   xmlns:rdf="http://www.w3.org/1999/02/22-rdf-syntax-ns#"
   xmlns:svg="http://www.w3.org/2000/svg"
   xmlns="http://www.w3.org/2000/svg"
   xmlns:sodipodi="http://sodipodi.sourceforge.net/DTD/sodipodi-0.dtd"
   xmlns:inkscape="http://www.inkscape.org/namespaces/inkscape"
   width="744.09448819"
   height="1052.3622047"
   id="svg2"
   version="1.1"
   inkscape:version="0.92.3 (unknown)"
   sodipodi:docname="rplexus-logo.svg"
   inkscape:export-filename="/home/ali/works/graphic/art/rplexus.com/press/rplexus-150.png"
   inkscape:export-xdpi="19.91"
   inkscape:export-ydpi="19.91">
  <defs
     id="defs4" />
  <sodipodi:namedview
     id="base"
     pagecolor="#ffffff"
     bordercolor="#666666"
     borderopacity="1.0"
     inkscape:pageopacity="0.0"
     inkscape:pageshadow="2"
     inkscape:zoom="0.5839312"
     inkscape:cx="-185.22601"
     inkscape:cy="782.54648"
     inkscape:document-units="px"
     inkscape:current-layer="layer1"
     showgrid="false"
     inkscape:window-width="1366"
     inkscape:window-height="713"
     inkscape:window-x="0"
     inkscape:window-y="27"
     inkscape:window-maximized="1" />
  <metadata
     id="metadata7">
    <rdf:RDF>
      <cc:Work
         rdf:about="">
        <dc:format>image/svg+xml</dc:format>
        <dc:type
           rdf:resource="http://purl.org/dc/dcmitype/StillImage" />
        <dc:title />
      </cc:Work>
    </rdf:RDF>
  </metadata>
  <g
     inkscape:label="Layer 1"
     inkscape:groupmode="layer"
     id="layer1">
    <text
       id="text5393"
       y="175.08792"
       x="185.88188"
       style="font-style:normal;font-variant:normal;font-weight:normal;font-stretch:normal;font-size:11.84695148px;line-height:0%;font-family:Ubuntu;-inkscape-font-specification:Ubuntu;letter-spacing:0px;word-spacing:0px;fill:#404040;fill-opacity:1;stroke:none;stroke-width:0.98724598"
       xml:space="preserve"
       inkscape:export-filename="/home/ali/works/graphic/art/rplexus.com/press/rplexus-150.png"
       inkscape:export-xdpi="20.700348"
       inkscape:export-ydpi="20.700348"><tspan
         y="175.08792"
         x="185.88188"
         id="tspan5395"
         sodipodi:role="line"
         style="font-size:153.29571533px;line-height:1.25;stroke-width:0.98724598">rplexus</tspan></text>
    <g
       id="g1893"
       transform="translate(20.044411,-413.80645)"
       inkscape:export-filename="/home/ali/works/dev/rplexus/rpart/product/rplexus_logo_640.png"
       inkscape:export-xdpi="451.42999"
       inkscape:export-ydpi="451.42999">
      <ellipse
         ry="68.05098"
         rx="68.050972"
         inkscape:export-ydpi="180.47987"
         inkscape:export-xdpi="180.47987"
         inkscape:export-filename="/home/ali/works/graphic/art/rplexus.com/press/status-online.png"
         cy="543.59552"
         cx="84.152092"
         id="path3734"
         style="opacity:1;fill:#ff0000;fill-opacity:1;stroke:none;stroke-width:0.42531863;stroke-linecap:round;stroke-linejoin:miter;stroke-miterlimit:4;stroke-dasharray:none;stroke-dashoffset:0;stroke-opacity:1" />
      <g
         transform="matrix(1.172285,0,0,1.172285,-42.569974,-108.61847)"
         id="g6284">
        <path
           id="path4448"
           d="M 91.807377,556.3613 A 16.290985,16.290987 0 0 0 108.09835,572.65229 16.290985,16.290987 0 0 0 124.38934,556.3613 16.290985,16.290987 0 0 0 108.09835,540.07032 16.290985,16.290987 0 0 0 91.807377,556.3613 Z"
           style="opacity:1;fill:#ffffff;fill-opacity:1;stroke:none;stroke-width:14.00740433;stroke-linecap:round;stroke-linejoin:miter;stroke-miterlimit:4;stroke-dasharray:none;stroke-dashoffset:0;stroke-opacity:1"
           inkscape:connector-curvature="0" />
        <path
           style="opacity:1;fill:none;fill-opacity:1;stroke:#ffffff;stroke-width:7.5457406;stroke-linecap:round;stroke-linejoin:miter;stroke-miterlimit:4;stroke-dasharray:none;stroke-dashoffset:0;stroke-opacity:1"
           d="M 137.45792,585.72086 120.19608,568.45903"
           id="rect4450"
           inkscape:connector-curvature="0"
           sodipodi:nodetypes="cc" />
        <path
           style="opacity:1;fill:none;fill-opacity:1;stroke:#ffffff;stroke-width:10.56403732;stroke-linecap:round;stroke-linejoin:miter;stroke-miterlimit:4;stroke-dasharray:none;stroke-dashoffset:0;stroke-opacity:1"
           d="m 136.49658,556.36102 c 0,-15.68403 -12.71444,-28.39852 -28.39851,-28.39852 -15.684073,0 -28.398493,12.71447 -28.398493,28.39852 0,15.68409 12.71442,28.39853 28.398493,28.39853"
           id="path4445"
           inkscape:connector-curvature="0"
           sodipodi:nodetypes="cssc" />
        <path
           sodipodi:nodetypes="cc"
           inkscape:connector-curvature="0"
           id="path4453"
           d="M 87.486133,535.74906 78.22854,526.49147"
           style="opacity:1;fill:none;fill-opacity:1;stroke:#ffffff;stroke-width:7.5457406;stroke-linecap:round;stroke-linejoin:miter;stroke-miterlimit:4;stroke-dasharray:none;stroke-dashoffset:0;stroke-opacity:1" />
      </g>
    </g>
    <rect
       inkscape:export-ydpi="95.812363"
       inkscape:export-xdpi="95.812363"
       inkscape:export-filename="/home/ali/works/graphic/art/rplexus.com/press/rplexus-96.png"
       y="34.102058"
       x="9.6116972"
       height="191.37402"
       width="708.91461"
       id="rect5327"
       style="opacity:1;fill:none;fill-opacity:1;stroke:none;stroke-width:1.05215108;stroke-linecap:round;stroke-linejoin:round;stroke-miterlimit:4;stroke-dasharray:none;stroke-opacity:1" />
    <g
       aria-label="rplexus"
       style="font-style:normal;font-variant:normal;font-weight:normal;font-stretch:normal;font-size:11.84695148px;line-height:0%;font-family:Ubuntu;-inkscape-font-specification:Ubuntu;letter-spacing:0px;word-spacing:0px;fill:#404040;fill-opacity:1;stroke:none;stroke-width:0.98724598"
       id="text892" />
    <g
       id="g944">
      <path
         id="path908"
         style="font-style:normal;font-variant:normal;font-weight:normal;font-stretch:normal;font-size:153.29571533px;line-height:1.25;font-family:Ubuntu;-inkscape-font-specification:Ubuntu;letter-spacing:0px;word-spacing:0px;fill:#404040;fill-opacity:1;stroke:none;stroke-width:0.98724598"
         d="m 227.57832,321.6879 q 1.83954,0 4.13898,0.30659 2.45273,0.15329 4.75217,0.61318 2.29943,0.30659 4.13898,0.76648 1.99285,0.30659 2.91262,0.61318 l -2.45273,12.41695 q -1.68625,-0.61318 -5.67194,-1.37966 -3.8324,-0.91977 -9.96422,-0.91977 -3.98569,0 -7.97138,0.91977 -3.83239,0.76648 -5.05876,1.07307 v 66.99023 h -14.2565 v -76.34127 q 5.05876,-1.83954 12.57025,-3.3725 7.51149,-1.68625 16.86253,-1.68625 z" />
      <path
         id="path910"
         style="font-style:normal;font-variant:normal;font-weight:normal;font-stretch:normal;font-size:153.29571533px;line-height:1.25;font-family:Ubuntu;-inkscape-font-specification:Ubuntu;letter-spacing:0px;word-spacing:0px;fill:#404040;fill-opacity:1;stroke:none;stroke-width:0.98724598"
         d="m 312.76762,363.38433 q 0,-13.94991 -6.89831,-21.4614 -6.89831,-7.51149 -18.39549,-7.51149 -6.43842,0 -10.11751,0.45989 -3.5258,0.45988 -5.67194,1.07307 v 50.28099 q 2.60602,2.14614 7.51149,4.13899 4.90546,1.99284 10.7307,1.99284 6.13182,0 10.4241,-2.14614 4.44558,-2.29943 7.2049,-6.13183 2.75933,-3.98569 3.98569,-9.19774 1.22637,-5.36535 1.22637,-11.49718 z m 14.86968,0 q 0,9.04445 -2.45273,16.70923 -2.29943,7.66479 -6.89831,13.18344 -4.59887,5.51864 -11.34388,8.58456 -6.59172,3.06591 -15.17628,3.06591 -6.8983,0 -12.26365,-1.83955 -5.21206,-1.83955 -7.81808,-3.5258 v 31.88551 H 257.42786 V 325.82688 q 5.05876,-1.22637 12.57025,-2.60603 7.66479,-1.53295 17.62901,-1.53295 9.19774,0 16.55594,2.91261 7.35819,2.91262 12.57025,8.27797 5.21205,5.36535 7.97137,13.18344 2.91262,7.66478 2.91262,17.32241 z" />
      <path
         id="path912"
         style="font-style:normal;font-variant:normal;font-weight:normal;font-stretch:normal;font-size:153.29571533px;line-height:1.25;font-family:Ubuntu;-inkscape-font-specification:Ubuntu;letter-spacing:0px;word-spacing:0px;fill:#404040;fill-opacity:1;stroke:none;stroke-width:0.98724598"
         d="m 371.76252,404.62088 q -13.18343,-0.30659 -18.70208,-5.67194 -5.51864,-5.36535 -5.51864,-16.70924 v -95.65652 l 14.2565,-2.45273 v 95.80982 q 0,3.5258 0.61318,5.82524 0.61319,2.29943 1.99285,3.67909 1.37966,1.37966 3.67909,2.14614 2.29944,0.61319 5.67195,1.07307 z" />
      <path
         id="path914"
         style="font-style:normal;font-variant:normal;font-weight:normal;font-stretch:normal;font-size:153.29571533px;line-height:1.25;font-family:Ubuntu;-inkscape-font-specification:Ubuntu;letter-spacing:0px;word-spacing:0px;fill:#404040;fill-opacity:1;stroke:none;stroke-width:0.98724598"
         d="m 385.31961,363.38433 q 0,-10.5774 3.06591,-18.39548 3.06592,-7.97138 8.12467,-13.18344 5.05876,-5.21205 11.65048,-7.81808 6.59171,-2.60603 13.49002,-2.60603 16.09605,0 24.68061,10.11752 8.58456,9.96422 8.58456,30.50585 0,0.91977 0,2.45273 0,1.37966 -0.15329,2.60603 h -54.57328 q 0.91978,12.41695 7.2049,18.85537 6.28512,6.43842 19.62185,6.43842 7.51149,0 12.57025,-1.22636 5.21205,-1.37967 7.81808,-2.60603 l 1.99285,11.95706 q -2.60603,1.37967 -9.19775,2.91262 -6.43842,1.53296 -14.71639,1.53296 -10.4241,0 -18.08889,-3.06591 -7.51149,-3.21921 -12.41695,-8.73786 -4.90547,-5.51865 -7.3582,-13.03014 -2.29943,-7.66478 -2.29943,-16.70923 z m 54.72657,-7.81808 q 0.15329,-9.65763 -4.90547,-15.78946 -4.90546,-6.28512 -13.64331,-6.28512 -4.90547,0 -8.73786,1.99284 -3.6791,1.83955 -6.28512,4.90546 -2.60603,3.06592 -4.13899,7.05161 -1.37966,3.98569 -1.83955,8.12467 z" />
      <path
         id="path916"
         style="font-style:normal;font-variant:normal;font-weight:normal;font-stretch:normal;font-size:153.29571533px;line-height:1.25;font-family:Ubuntu;-inkscape-font-specification:Ubuntu;letter-spacing:0px;word-spacing:0px;fill:#404040;fill-opacity:1;stroke:none;stroke-width:0.98724598"
         d="m 523.07017,403.08792 q -1.68625,-3.3725 -4.13898,-7.51149 -2.45274,-4.13898 -5.36535,-8.43126 -2.91262,-4.44558 -5.97854,-8.73786 -3.06591,-4.29228 -5.97853,-8.12467 -2.91262,3.83239 -5.97853,8.27797 -3.06592,4.29228 -5.97854,8.73785 -2.75932,4.29228 -5.21205,8.43127 -2.45273,4.13898 -4.13898,7.35819 h -14.71639 q 5.36535,-10.42411 12.72354,-21.15481 7.51149,-10.88399 14.86969,-20.69492 l -26.36687,-37.86404 h 16.09605 l 19.00867,27.89982 19.16197,-27.89982 h 15.17627 l -25.75368,36.94427 q 7.3582,9.96422 15.02298,21.15481 7.81808,11.03729 13.18343,21.61469 z" />
      <path
         id="path918"
         style="font-style:normal;font-variant:normal;font-weight:normal;font-stretch:normal;font-size:153.29571533px;line-height:1.25;font-family:Ubuntu;-inkscape-font-specification:Ubuntu;letter-spacing:0px;word-spacing:0px;fill:#404040;fill-opacity:1;stroke:none;stroke-width:0.98724598"
         d="m 617.30393,400.78849 q -4.90546,1.22636 -13.03013,2.60602 -7.97138,1.37966 -18.54878,1.37966 -9.19775,0 -15.48287,-2.60602 -6.28512,-2.75933 -10.11752,-7.66479 -3.83239,-4.90546 -5.51864,-11.49718 -1.68626,-6.74501 -1.68626,-14.86968 v -44.76235 h 14.25651 v 41.69643 q 0,14.5631 4.59887,20.84822 4.59887,6.28513 15.48286,6.28513 2.29944,0 4.75217,-0.1533 2.45273,-0.1533 4.59887,-0.30659 2.14614,-0.30659 3.8324,-0.45989 1.83954,-0.30659 2.60602,-0.61318 v -67.29682 h 14.2565 z" />
      <path
         id="path920"
         style="font-style:normal;font-variant:normal;font-weight:normal;font-stretch:normal;font-size:153.29571533px;line-height:1.25;font-family:Ubuntu;-inkscape-font-specification:Ubuntu;letter-spacing:0px;word-spacing:0px;fill:#404040;fill-opacity:1;stroke:none;stroke-width:0.98724598"
         d="m 660.41356,392.81711 q 8.73785,0 12.87684,-2.29944 4.29228,-2.29943 4.29228,-7.35819 0,-5.21206 -4.13899,-8.27797 -4.13898,-3.06591 -13.64331,-6.89831 -4.59888,-1.83955 -8.89116,-3.67909 -4.13898,-1.99285 -7.20489,-4.59888 -3.06592,-2.60602 -4.90547,-6.28512 -1.83955,-3.6791 -1.83955,-9.04445 0,-10.5774 7.81809,-16.70923 7.81808,-6.28513 21.3081,-6.28513 3.37251,0 6.74501,0.45989 3.37251,0.30659 6.28513,0.91978 2.91261,0.45988 5.05875,1.07307 2.29944,0.61318 3.52581,1.07307 l -2.60603,12.26365 q -2.29944,-1.22636 -7.2049,-2.45273 -4.90546,-1.37966 -11.80377,-1.37966 -5.97853,0 -10.42411,2.45273 -4.44557,2.29944 -4.44557,7.3582 0,2.60602 0.91977,4.59887 1.07307,1.99284 3.06591,3.6791 2.14614,1.53295 5.21206,2.91261 3.06591,1.37967 7.35819,2.91262 5.67194,2.14614 10.11752,4.29228 4.44558,1.99285 7.51149,4.75217 3.21921,2.75932 4.90546,6.74501 1.68626,3.83239 1.68626,9.50434 0,11.03729 -8.27797,16.70923 -8.12468,5.67194 -23.30095,5.67194 -10.57741,0 -16.55594,-1.83955 -5.97853,-1.68625 -8.12467,-2.60603 l 2.60603,-12.26365 q 2.45273,0.91977 7.81808,2.75932 5.36535,1.83955 14.2565,1.83955 z" />
      <g
         id="g906"
         transform="translate(20.044411,-185.80645)">
        <ellipse
           ry="68.05098"
           rx="68.050972"
           inkscape:export-ydpi="180.47987"
           inkscape:export-xdpi="180.47987"
           inkscape:export-filename="/home/ali/works/graphic/art/rplexus.com/press/status-online.png"
           cy="543.59552"
           cx="84.152092"
           id="ellipse894"
           style="opacity:1;fill:#ff0000;fill-opacity:1;stroke:none;stroke-width:0.42531863;stroke-linecap:round;stroke-linejoin:miter;stroke-miterlimit:4;stroke-dasharray:none;stroke-dashoffset:0;stroke-opacity:1" />
        <g
           transform="matrix(1.172285,0,0,1.172285,-42.569974,-108.61847)"
           id="g904">
          <path
             id="path896"
             d="M 91.807377,556.3613 A 16.290985,16.290987 0 0 0 108.09835,572.65229 16.290985,16.290987 0 0 0 124.38934,556.3613 16.290985,16.290987 0 0 0 108.09835,540.07032 16.290985,16.290987 0 0 0 91.807377,556.3613 Z"
             style="opacity:1;fill:#ffffff;fill-opacity:1;stroke:none;stroke-width:14.00740433;stroke-linecap:round;stroke-linejoin:miter;stroke-miterlimit:4;stroke-dasharray:none;stroke-dashoffset:0;stroke-opacity:1"
             inkscape:connector-curvature="0" />
          <path
             style="opacity:1;fill:none;fill-opacity:1;stroke:#ffffff;stroke-width:7.5457406;stroke-linecap:round;stroke-linejoin:miter;stroke-miterlimit:4;stroke-dasharray:none;stroke-dashoffset:0;stroke-opacity:1"
             d="M 137.45792,585.72086 120.19608,568.45903"
             id="path898"
             inkscape:connector-curvature="0"
             sodipodi:nodetypes="cc" />
          <path
             style="opacity:1;fill:none;fill-opacity:1;stroke:#ffffff;stroke-width:10.56403732;stroke-linecap:round;stroke-linejoin:miter;stroke-miterlimit:4;stroke-dasharray:none;stroke-dashoffset:0;stroke-opacity:1"
             d="m 136.49658,556.36102 c 0,-15.68403 -12.71444,-28.39852 -28.39851,-28.39852 -15.684073,0 -28.398493,12.71447 -28.398493,28.39852 0,15.68409 12.71442,28.39853 28.398493,28.39853"
             id="path900"
             inkscape:connector-curvature="0"
             sodipodi:nodetypes="cssc" />
          <path
             sodipodi:nodetypes="cc"
             inkscape:connector-curvature="0"
             id="path902"
             d="M 87.486133,535.74906 78.22854,526.49147"
             style="opacity:1;fill:none;fill-opacity:1;stroke:#ffffff;stroke-width:7.5457406;stroke-linecap:round;stroke-linejoin:miter;stroke-miterlimit:4;stroke-dasharray:none;stroke-dashoffset:0;stroke-opacity:1" />
        </g>
      </g>
    </g>
  </g>
</svg>
